     14 IS3_176
     13 IS21_259
     11 ISNCY_229
     10 IS30_223
      8 IS1182_42
      7 IS256_47
      5 IS30_173
      5 IS200/IS605_96
      4 ISAS1_192
      4 IS3_168
      3 ISL3_126|ISL3||protein:plasmid:139408
      3 IS3_61
      3 IS3_204
      3 IS21_288
      3 IS200/IS605_384
      3 IS200/IS605_132|IS200/IS605||protein:plasmid:139261
      3 IS1_316
      2 ISL3_27
      2 IS66_46
      2 IS66_345
      2 IS630_214
      2 IS3_97
      2 IS3_524
      2 IS3_271
      2 IS110_170
      1 ISNCY_86
      1 IS701_181|IS701||protein:plasmid:127125
      1 IS66_393
      1 IS630_218|IS630||protein:proph:160562
      1 IS5_222
      1 IS5_194
      1 IS481_30|IS481||protein:vir:99858
      1 IS481_228
      1 IS481_213
      1 IS4_463|IS4||protein:plasmid:123269
      1 IS4_169
      1 IS3_529|IS3||protein:plasmid:137205
      1 IS3_479
      1 IS3_461
      1 IS3_445|IS3||protein:plasmid:114110
      1 IS3_423
      1 IS3_274
      1 IS3_255
      1 IS3_251
      1 IS3_206
      1 IS256_550
      1 IS256_162
      1 IS256_128
      1 IS21_35
      1 IS21_203
      1 IS21_159
      1 IS200/IS605_449
      1 IS200/IS605_442
      1 IS1380_109
