## 1 - Complete phage contigs - category 1 (sure)
## Contig_id,Nb genes contigs,Fragment,Nb genes,Category,Nb phage hallmark genes,Phage gene enrichment sig,Non-Caudovirales phage gene enrichment sig,Pfam depletion sig,Uncharacterized enrichment sig,Strand switch depletion sig,Short genes enrichment sig
VIRSorter_NODE_361_length_17381_cov_31_470853,24,VIRSorter_NODE_361_length_17381_cov_31_470853,24,1,2,15.68753616383772,,16.93031222256855,,,
## 2 - Complete phage contigs - category 2 (somewhat sure)
## Contig_id,Nb genes contigs,Fragment,Nb genes,Category,Nb phage hallmark genes,Phage gene enrichment sig,Non-Caudovirales phage gene enrichment sig,Pfam depletion sig,Uncharacterized enrichment sig,Strand switch depletion sig,Short genes enrichment sig
VIRSorter_NODE_124_length_74445_cov_39_804463,86,VIRSorter_NODE_124_length_74445_cov_39_804463,86,2,3,,,gene_2-gene_86:5.13893119828490,,,
VIRSorter_NODE_172_length_55105_cov_50_664578,72,VIRSorter_NODE_172_length_55105_cov_50_664578,72,2,2,gene_2-gene_72:33.35350782729742,,51.03344505073930,,,
VIRSorter_NODE_215_length_41411_cov_28_579287,58,VIRSorter_NODE_215_length_41411_cov_28_579287,58,2,2,gene_7-gene_58:23.62895761571902,,gene_6-gene_58:41.21429920923832,,,
VIRSorter_NODE_242_length_35533_cov_32_177378,52,VIRSorter_NODE_242_length_35533_cov_32_177378,52,2,3,gene_3-gene_51:22.92512357884037,,32.45366986595499,,,gene_24-gene_42:3.47883969221569
VIRSorter_NODE_266_length_31875_cov_48_430735,32,VIRSorter_NODE_266_length_31875_cov_48_430735,32,2,,18.12279426244655,,23.51619076517056,,,
VIRSorter_NODE_327_length_22613_cov_28_336023,22,VIRSorter_NODE_327_length_22613_cov_28_336023,22,2,,,gene_13-gene_22:4.88893145430265,gene_4-gene_22:3.32783098916366,,,
VIRSorter_NODE_331_length_21863_cov_49_863949,17,VIRSorter_NODE_331_length_21863_cov_49_863949,17,2,,6.10831022196133,,8.15623551624385,,,
VIRSorter_NODE_461_length_6890_cov_26_421214,8,VIRSorter_NODE_461_length_6890_cov_26_421214,8,2,,2.57055856187524,,7.07186911256238,,,
VIRSorter_NODE_470_length_5980_cov_34_765232,10,VIRSorter_NODE_470_length_5980_cov_34_765232,10,2,,3.90821987391071,,7.01016747148847,,,
VIRSorter_NODE_474_length_5662_cov_35_584626,9,VIRSorter_NODE_474_length_5662_cov_35_584626,9,2,,7.46627286452409,,7.95585275163268,,,
VIRSorter_NODE_483_length_5265_cov_71_291939,5,VIRSorter_NODE_483_length_5265_cov_71_291939,5,2,,4.14792936918005,,4.41991819535149,,,
VIRSorter_NODE_493_length_4776_cov_40_000212,11,VIRSorter_NODE_493_length_4776_cov_40_000212,11,2,,gene_1-gene_10:7.81873748364043,,gene_1-gene_10:8.36271513598332,,,
VIRSorter_NODE_498_length_4507_cov_24_514825,8,VIRSorter_NODE_498_length_4507_cov_24_514825,8,2,,6.63668699068808,,7.07186911256238,,,
VIRSorter_NODE_506_length_4125_cov_56_480098,8,VIRSorter_NODE_506_length_4125_cov_56_480098,8,2,,2.57055856187524,13.12752589330809,7.07186911256238,,,2.29892011493682
VIRSorter_NODE_521_length_3642_cov_52_626986,5,VIRSorter_NODE_521_length_3642_cov_52_626986,5,2,,2.67412238253486,,4.41991819535149,,,
VIRSorter_NODE_631_length_1922_cov_40_116765,4,VIRSorter_NODE_631_length_1922_cov_40_116765,4,2,,3.31834349534404,,3.53593455628119,,,
VIRSorter_NODE_651_length_1788_cov_60_066936,3,VIRSorter_NODE_651_length_1788_cov_60_066936,3,2,,2.48875762150803,,2.65195091721089,,,
VIRSorter_NODE_69_length_118435_cov_27_184769,146,VIRSorter_NODE_69_length_118435_cov_27_184769,146,2,4,gene_1-gene_92:33.44468671580789,,gene_1-gene_92:72.13404771455775,gene_39-gene_121:2.53508114035840,gene_7-gene_93:3.67339701402371,gene_23-gene_79:4.05668083916076
## 3 - Complete phage contigs - category 3 (not so sure)
## Contig_id,Nb genes contigs,Fragment,Nb genes,Category,Nb phage hallmark genes,Phage gene enrichment sig,Non-Caudovirales phage gene enrichment sig,Pfam depletion sig,Uncharacterized enrichment sig,Strand switch depletion sig,Short genes enrichment sig
VIRSorter_NODE_2591_length_800_cov_1_800000,4,VIRSorter_NODE_2591_length_800_cov_1_800000,4,3,,,,3.53593455628119,3.74943048604655,,4.00000000000000
VIRSorter_NODE_325_length_22685_cov_31_130667,17,VIRSorter_NODE_325_length_22685_cov_31_130667,17,3,,,,gene_4-gene_17:5.77240903164317,gene_4-gene_14:3.86601935865363,,
VIRSorter_NODE_423_length_11306_cov_40_248956,12,VIRSorter_NODE_423_length_11306_cov_40_248956,12,3,,,,4.99798793672639,5.45849080199967,,gene_2-gene_12:2.75098849548826
VIRSorter_NODE_499_length_4505_cov_30_275281,6,VIRSorter_NODE_499_length_4505_cov_30_275281,6,3,,,,5.30390183442179,3.95259497939732,,2.89619627904404
VIRSorter_NODE_520_length_3649_cov_25_690874,5,VIRSorter_NODE_520_length_3649_cov_25_690874,5,3,,,,4.41991819535149,4.68678810755819,,
## 4 - Prophages - category 1 (sure)
## Contig_id,Nb genes contigs,Fragment,Nb genes,Category,Nb phage hallmark genes,Phage gene enrichment sig,Non-Caudovirales phage gene enrichment sig,Pfam depletion sig,Uncharacterized enrichment sig,Strand switch depletion sig,Short genes enrichment sig
VIRSorter_NODE_103_length_86564_cov_29_171635,84,VIRSorter_NODE_103_length_86564_cov_29_171635-gene_21-gene_44,24,1,1,gene_21-gene_44:4.47218038846061,,gene_21-gene_44:10.42911842633082,,,
VIRSorter_NODE_22_length_233057_cov_48_084077,245,VIRSorter_NODE_22_length_233057_cov_48_084077-gene_151-gene_221,71,1,2,gene_151-gene_221:15.60971293257508,,gene_151-gene_221:43.62953532566563,gene_186-gene_215:2.37353364141430,,gene_177-gene_216:2.79882711022661
VIRSorter_NODE_286_length_28385_cov_39_159054,25,VIRSorter_NODE_286_length_28385_cov_39_159054-gene_1-gene_11,11,1,1,gene_1-gene_11:2.46913042421759,,gene_1-gene_11:4.19050274370302,,,
VIRSorter_NODE_38_length_172754_cov_37_514601,140,VIRSorter_NODE_38_length_172754_cov_37_514601-gene_1-gene_33,33,1,1,gene_1-gene_33:2.18446522492944,,gene_1-gene_33:7.90398292799168,,,
VIRSorter_NODE_61_length_128894_cov_58_632285,149,VIRSorter_NODE_61_length_128894_cov_58_632285-gene_35-gene_134,100,1,6,gene_70-gene_133:30.36251476883728,gene_35-gene_134:4.22847993675708,gene_55-gene_134:41.56930489425469,gene_35-gene_134:4.22847993675708,gene_35-gene_134:4.22847993675708,gene_35-gene_134:4.22847993675708
## 5 - Prophages - category 2 (somewhat sure)
## Contig_id,Nb genes contigs,Fragment,Nb genes,Category,Nb phage hallmark genes,Phage gene enrichment sig,Non-Caudovirales phage gene enrichment sig,Pfam depletion sig,Uncharacterized enrichment sig,Strand switch depletion sig,Short genes enrichment sig
VIRSorter_NODE_10_length_294137_cov_52_574163,308,VIRSorter_NODE_10_length_294137_cov_52_574163-gene_10-gene_64,55,2,6,gene_14-gene_59:9.60036656204069,,gene_10-gene_64:24.10600277067660,,,
VIRSorter_NODE_113_length_80720_cov_32_951305,89,VIRSorter_NODE_113_length_80720_cov_32_951305-gene_39-gene_89,51,2,3,gene_42-gene_89:18.87427971790768,,gene_39-gene_89:23.21849538140035,,,
VIRSorter_NODE_178_length_53134_cov_48_027826,49,VIRSorter_NODE_178_length_53134_cov_48_027826-gene_14-gene_30,17,2,3,gene_15-gene_30:2.88729763615269,,gene_14-gene_30:5.42576064904116,,,
VIRSorter_NODE_263_length_32147_cov_38_554936,31,VIRSorter_NODE_263_length_32147_cov_38_554936-gene_17-gene_31,15,2,1,,,gene_17-gene_31:3.23298902717509,,,
VIRSorter_NODE_2_length_455483_cov_49_704324,406,VIRSorter_NODE_2_length_455483_cov_49_704324-gene_228-gene_258,31,2,2,gene_228-gene_257:6.35479071917085,,gene_228-gene_258:16.76883706481721,,,
VIRSorter_NODE_337_length_20916_cov_36_863381,24,VIRSorter_NODE_337_length_20916_cov_36_863381-gene_9-gene_21,13,2,,gene_9-gene_21:5.28077921737805,,gene_9-gene_21:5.86326294113548,,,
VIRSorter_NODE_37_length_184214_cov_28_424454,190,VIRSorter_NODE_37_length_184214_cov_28_424454-gene_13-gene_131,119,2,3,gene_13-gene_59:12.69239954758719,gene_32-gene_131:9.42445711155713,gene_13-gene_59:30.77080024418701;gene_117-gene_131:2.71731594020962,gene_32-gene_131:9.42445711155713,gene_32-gene_131:9.42445711155713,gene_32-gene_131:9.42445711155713
VIRSorter_NODE_48_length_142396_cov_29_774148,137,VIRSorter_NODE_48_length_142396_cov_29_774148-gene_1-gene_53,53,2,1,gene_1-gene_52:18.80315015764890,,gene_1-gene_53:36.12989488346576,,,
VIRSorter_NODE_4_length_428680_cov_35_330163,366,VIRSorter_NODE_4_length_428680_cov_35_330163-gene_1-gene_237,237,2,4,gene_90-gene_117:11.41183937528961,gene_101-gene_200:9.06384142590890,gene_60-gene_122:40.26937778968755;gene_179-gene_237:4.59415292789501;gene_1-gene_42:3.58989251972504,gene_101-gene_200:9.06384142590890;gene_7-gene_89:6.60062322274477,gene_101-gene_200:9.06384142590890,gene_101-gene_200:9.06384142590890;gene_60-gene_81:2.15550751588193
VIRSorter_NODE_67_length_120131_cov_62_282263,119,VIRSorter_NODE_67_length_120131_cov_62_282263-gene_16-gene_51,36,2,1,,,gene_16-gene_51:4.96452319360105,,,
VIRSorter_NODE_74_length_108011_cov_34_877515,113,VIRSorter_NODE_74_length_108011_cov_34_877515-gene_2-gene_23,22,2,,gene_2-gene_20:5.38482389238494,,gene_2-gene_23:8.54693446183712,,,
## 6 - Prophages - category 3 (not so sure)
## Contig_id,Nb genes contigs,Fragment,Nb genes,Category,Nb phage hallmark genes,Phage gene enrichment sig,Non-Caudovirales phage gene enrichment sig,Pfam depletion sig,Uncharacterized enrichment sig,Strand switch depletion sig,Short genes enrichment sig
VIRSorter_NODE_12_length_277229_cov_55_125549,262,VIRSorter_NODE_12_length_277229_cov_55_125549-gene_221-gene_240,20,3,,,,gene_221-gene_240:6.40903986796802,gene_221-gene_240:7.23513304318347,,
VIRSorter_NODE_12_length_277229_cov_55_125549,262,VIRSorter_NODE_12_length_277229_cov_55_125549-gene_91-gene_134,44,3,,,,gene_119-gene_134:4.63483265203372,gene_91-gene_132:3.86911004105157,,
VIRSorter_NODE_198_length_46113_cov_65_075405,59,VIRSorter_NODE_198_length_46113_cov_65_075405-gene_10-gene_37,28,3,,,,gene_10-gene_37:11.11361427826141,gene_10-gene_35:10.58295576933121,,
VIRSorter_NODE_1_length_531082_cov_46_614892,530,VIRSorter_NODE_1_length_531082_cov_46_614892-gene_143-gene_242,100,3,,,gene_143-gene_242:2.69476820637184,gene_171-gene_205:5.36948639784559,gene_171-gene_205:6.39142667218346,gene_143-gene_242:2.69476820637184,gene_143-gene_242:2.69476820637184
VIRSorter_NODE_202_length_45467_cov_35_529794,47,VIRSorter_NODE_202_length_45467_cov_35_529794-gene_2-gene_25,24,3,,,,gene_2-gene_25:8.25671153604856,gene_2-gene_25:7.87681534777729,,
VIRSorter_NODE_21_length_234919_cov_52_181858,218,VIRSorter_NODE_21_length_234919_cov_52_181858-gene_114-gene_139,26,3,,,,gene_114-gene_139:6.00233639813395,gene_114-gene_139:5.71719407113047,,
VIRSorter_NODE_4_length_428680_cov_35_330163,366,VIRSorter_NODE_4_length_428680_cov_35_330163-gene_266-gene_365,100,3,,,gene_266-gene_365:8.52626149679006,gene_266-gene_365:8.52626149679006,gene_266-gene_365:8.52626149679006,gene_266-gene_365:8.52626149679006,gene_266-gene_365:8.52626149679006
VIRSorter_NODE_7_length_303806_cov_35_817100,305,VIRSorter_NODE_7_length_303806_cov_35_817100-gene_236-gene_250,15,3,,,,gene_236-gene_250:3.75833292317111,gene_236-gene_250:4.37836015755083,,
VIRSorter_NODE_88_length_97104_cov_28_597111,111,VIRSorter_NODE_88_length_97104_cov_28_597111-gene_25-gene_111,87,3,,,,gene_53-gene_111:10.38686518109808,gene_25-gene_87:4.99154755014767,,
VIRSorter_NODE_8_length_300426_cov_54_438584,312,VIRSorter_NODE_8_length_300426_cov_54_438584-gene_1-gene_22,22,3,,,,gene_1-gene_22:4.05366884882475,gene_1-gene_22:3.64305473151961,,
